0 1
0.0490873852123405 1
0.115036428825629 1
0.203639159133903 1
0.322677182855889 1
0.482605111062324 1
0.697468743880508 1
0.986138654293124 1
1.37396751152995 1
1.89501669982472 1
2.59504778713718 1
3.53554157200924 1
4.79909768460824 1
6.49668896630231 1
8.7774077495435 1
11.8415600130013 1
15.9582574167516 1
21.489052252293 1
28.9196910660623 1
38.9027757442145 1
52.3150788030682 1
70.3345466471328 1
94.5437536683637 1
100 1
