0 1
0.0490873852123405 0.975466164023736
0.122774187413398 0.93876705910156
0.208652479375881 0.89642937296461
0.299815334632638 0.852328868804716
0.393456602007176 0.808309970022054
0.488691985134502 0.765266991771695
0.58543623261227 0.723722631323341
0.683946898392811 0.684077402815253
0.784666264347271 0.646713646983477
0.888190590998542 0.61204503684856
0.995305252565027 0.5805514755466
1.10144017486311 0.554087505010549
1.20528138122117 0.533050624531125
1.30682458329875 0.517342858408734
1.40647453452873 0.506761458391428
1.5047146998335 0.501119952332392
1.60200703635762 0.500274297969207
1.69877395284527 0.504121596367707
1.79540630178397 0.512593579232363
1.8922782145819 0.525651128883711
1.98976332670078 0.543281162891852
2.0882518637957 0.565496014130317
2.18816998000013 0.592335423065406
2.29000397322572 0.623871678558767
2.39433369831438 0.660219215809073
2.50188279543949 0.701551411180071
2.6114878345705 0.747218324044402
2.71956813794291 0.795222669984234
2.82528489333658 0.84449267728141
2.92881178620513 0.894428088055015
3.03061472692629 0.944636834321427
3.13119978584127 0.994809569269163
3.23104307283046 1.04466500522254
3.33167704501146 1.09446333815679
3.43402212838084 1.14412469997014
3.53867041006003 1.19333957394254
3.64612975273864 1.24166961861511
3.75693334083818 1.28857774447906
3.87170806429634 1.33342742813045
3.99124320813237 1.37546399488828
4.11023671129032 1.41198808571437
4.22574348534276 1.44187283978476
4.33753446823472 1.46519182551421
4.44622415583898 1.48229781058538
4.55256958715083 1.49352670147947
4.65726615043931 1.49913468715768
4.76091579954117 1.49930216396373
4.86404493328782 1.49414972582768
4.96713188598465 1.48375170793955
5.07063349438445 1.46814485435756
5.17500984842374 1.44733250561128
5.28074936943764 1.42128482852134
5.38839770781569 1.38993499482172
5.49859560803186 1.35317023583349
5.61213429000865 1.31081508096774
5.73004452770985 1.26260087357854
5.85375396776467 1.20810820017889
5.97609319053492 1.15108883694499
6.09473490290851 1.0936283034048
6.20941433398176 1.03682789260691
6.32054301492695 0.981317982855326
6.4291965175852 0.92726304925207
6.53710414866538 0.874427414585655
6.64522446741818 0.822953720470827
6.75424411728327 0.773147663040604
6.86478142736046 0.72540165233629
6.97748666928893 0.680174676184762
7.09311390586819 0.637998239453397
7.21260164196367 0.599499889380611
7.33567390104681 0.565823599472894
7.4573234212506 0.538990113765999
7.57634281494325 0.519329289023856
7.69295006836063 0.506661296259816
7.80777470011901 0.500734083455979
7.9215064240223 0.501345115617175
8.03480249660679 0.508360006025317
8.14828400658142 0.521705671024466
8.2625598579093 0.54136176284213
8.37825992564103 0.567356497401392
8.49607503507852 0.599768417203231
8.61680874708135 0.638735501957096
8.74145246447288 0.684474979376474
8.87130716991056 0.737321741652192
9.00134281859461 0.794672871512131
9.12896315849521 0.854334471009391
9.25401485123247 0.915098591106464
9.37713332988178 0.976222333208017
9.49912765187232 1.03714467161904
9.62191510011644 1.0979024546637
9.74735297367744 1.15844151085186
9.87662286507228 1.21821366051748
10.0107580008921 1.27637139111682
10.1508971438377 1.33181103021819
10.2984768816804 1.38313922560701
10.4476138198329 1.42654126268367
10.5930142314671 1.45974462096853
10.7342240746637 1.48270844664566
10.8723093681875 1.49587334151037
11.0086085845277 1.49961054816725
11.1443977680662 1.4941183987401
11.2808665705753 1.47943379601487
11.4191851654735 1.45545497229526
11.5606002611491 1.42194981790673
11.7065575692326 1.3785433920985
11.8588780252954 1.3246775351076
12.0200533112179 1.2595238291699
12.1938208971564 1.18179902416772
12.371201402353 1.09683372618434
12.5471538316313 1.00954988023985
12.7221131491543 0.922468059565668
12.9027259099149 0.835092578075248
13 0.790082189461447
