0 1
0.0430340792034872 0.978498729294586
0.0839959866828809 0.958085662644388
0.124220470091211 0.938123311867435
0.164201674078612 0.918394942673788
0.204137435488591 0.898832653959863
0.244117407750657 0.879423224983715
0.284191520918085 0.860173911027814
0.324395461038903 0.841099826250317
0.364760313476233 0.82221929612757
0.405316328623707 0.803552178850108
0.446094515315947 0.78511929865873
0.487127450872983 0.766942300592782
0.528449834319944 0.749043671321071
0.570098989236312 0.731446833479038
0.612115406032947 0.714176282186221
0.654543373984122 0.697257756072801
0.697431744369297 0.680718445158326
0.740834870951482 0.664587243381059
0.784813787771288 0.648895058092539
0.829437707037135 0.633675194138674
0.874604579265814 0.619021119817901
0.919503788930153 0.605231772455918
0.963870651494013 0.59239467299437
1.00765244441547 0.580519937008879
1.05087269629765 0.569592302862858
1.09357891482492 0.559590103071842
1.1358233571656 0.550491743868088
1.17765646488163 0.542277651614587
1.21912501081196 0.53493064747736
1.26027192003506 0.528435821669324
1.30113662904607 0.52278028179665
1.34175557252246 0.5179528984274
1.38216265911765 0.513944082802846
1.42238969721969 0.510745602182046
1.46246676627025 0.508350429539175
1.50242254004614 0.506752622527392
1.54228457068212 0.505947226968907
1.58207954186188 0.505930200999447
1.62183349856742 0.506698356876657
1.6615720597432 0.508249318226747
1.70132061940428 0.510581491144145
1.74110454113272 0.513694048100387
1.78094935055434 0.517586924092512
1.82088093025265 0.522260824897246
1.86092572165074 0.527717247722983
1.90111093867996 0.533958514993643
1.94146479857896 0.540987822485633
1.98201677596763 0.548809303604046
2.02279788748377 0.557428112268002
2.06384101585297 0.566850527731063
2.1051812844294 0.577084085764153
2.14685649620524 0.588137742077897
2.18890765535063 0.600022075806562
2.2313795949711 0.612749543533615
2.2743217426473 0.62633479803458
2.31778906651146 0.640795091143596
2.36184326077091 0.656150787693229
2.40655425335776 0.672426028575875
2.45171601290077 0.689539083366888
2.49658076007653 0.707176136702813
2.54090905130908 0.725191103601243
2.58465760149724 0.743510107367184
2.62785311649945 0.762089615763921
2.67054388167868 0.780898880200008
2.71278204173691 0.79991270580615
2.75461761387363 0.819108485493155
2.79609685144745 0.838464967085319
2.83726214315311 0.857961719383053
2.87815239796661 0.877578879776735
2.9188035382038 0.897297016244215
2.9592489746267 0.917097036997998
2.99952002919173 0.93696012104136
3.03964630271277 0.956867658721446
3.07965599439769 0.976801197606414
3.11957618217751 0.996742391469072
3.15943307224483 1.01667295112712
3.19941717306386 1.03665697352143
3.23964591786577 1.05672140221107
3.28017790644869 1.07686244296532
3.32105035435629 1.09706400679629
3.36229320445556 1.11730457881984
3.40393455860984 1.13755974485303
3.44600287859369 1.15780307893753
3.48852799993659 1.17800640703219
3.53154173105755 1.19813982722324
3.57507833508883 1.21817162726502
3.61917501583077 1.23806814956257
3.66387246631218 1.25779361887769
3.70921551898832 1.27730993395042
3.7552539351334 1.29657641753204
3.80204337866913 1.31554951483475
3.84964663443511 1.33418242590205
3.89812735503379 1.35242177966079
3.94623497220546 1.36974471708912
3.99356149313507 1.38599411836098
4.04003073698274 1.4011501836296
4.08568385133302 1.41523810957225
4.13059626281865 1.42829398380132
4.17484767457028 1.44035325755617
4.21851238864874 1.45144746667915
4.26165704729997 1.46160377589856
4.30434088018478 1.47084537855115
4.34661665521919 1.47919207372975
4.38853171005483 1.48666080842668
4.43012887529109 1.49326613312732
4.4714472527021 1.49902057061255
4.51252286003364 1.50393491112398
4.55338916544996 1.50801844822183
4.59407753428301 1.51127916750729
4.63461760717307 1.51372389776614
4.67503762491258 1.51535843182337
4.71536471213106 1.51618762260838
4.75562512950031 1.51621545855572
4.79584450230548 1.5154451214108
4.83604803189506 1.51387902868732
4.87626069558354 1.51151886236507
4.91650743995461 1.50836558487107
4.95681337214599 1.50441944291352
4.99720395355566 1.49967995930394
5.03770520048128 1.49414591247978
5.07834389649012 1.48781530300041
5.11914782183974 1.48068530580583
5.16014600606765 1.47275220646608
5.20136901100653 1.46401131897051
5.24284925305971 1.45445688175556
5.2846213757299 1.44408192757563
5.32672268634474 1.43287812138154
5.36919367497273 1.42083555843795
5.41207863912924 1.40794251226994
5.45542644572471 1.39418511835567
5.4992914728606 1.37954697428191
5.54373479018459 1.36400862957992
5.58882566021268 1.34754692742238
5.63464347863864 1.33013414375881
5.68128032647307 1.31173684386874
5.7288443935767 1.29231433574458
5.7768564466979 1.27207679002582
5.82444639890829 1.25143502777749
5.87132450815691 1.23057984214073
5.91742628995185 1.20960814033645
5.96276881818282 1.18857744963736
6.00739542952382 1.16752845230222
6.05135529710751 1.14649413632437
6.09469634936528 1.12550350214009
6.13746316584129 1.10458308670162
6.17969665859527 1.08375761841406
6.22143434409572 1.06305032594996
6.2627107703021 1.04248310776944
6.30355794890962 1.02207664390644
6.34400574764733 1.00185048229675
6.38408223463459 0.98182311262825
6.42399660824246 0.961921119079608
6.46386088340699 0.942119352891557
6.50373252797541 0.922420035531301
6.54364878723763 0.902835763031285
6.58363961638667 0.883383176469304
6.62373264718106 0.864080626203769
6.66395518233426 0.844947337726071
6.70433508864667 0.826003144552346
6.74490129382865 0.807268438283883
6.78568415590098 0.788764205860777
6.82671581171959 0.770512106823805
6.8680305518444 0.752534574758113
6.90966524879644 0.734854939277719
6.95165986098879 0.717497570082039
6.99405803670376 0.700488047396707
7.0369078486909 0.683853365325735
7.0802626999987 0.667622177117745
7.12418245658234 0.651825094620366
7.16873488430688 0.636495058820371
7.21399750109226 0.621667805129719
7.25905412535831 0.607685532793674
7.30359140077612 0.594654285557364
7.34753893832471 0.582590365079875
7.39091471349772 0.571480122054968
7.43376516274126 0.561301923983104
7.47614300484748 0.55203373363731
7.51809957559969 0.543655439034686
7.55968258415561 0.536149351043398
7.6009358093301 0.529500109036633
7.64189943010784 0.523694430462042
7.68261051601162 0.518720849044247
7.72310351548917 0.514569483768709
7.76341069519229 0.511231846299267
7.80356252326962 0.508700683999752
7.84358800256862 0.506969853396115
7.88351496265095 0.506034219134398
7.92337031932837 0.505889574357015
7.96318030938602 0.506532579331926
8.00297070707907 0.507960715967094
8.04276702810749 0.510172256510293
8.08259472614005 0.513166245296253
8.12247938656531 0.516942492891219
8.16244692197482 0.521501582429992
8.20252377392485 0.526844888370508
8.2427371257777 0.53297460833321
8.28311513191449 0.539893809175349
8.32368716937211 0.547606489006308
8.36448411905352 0.556117657518899
8.40553868518242 0.565433437845359
8.44688576376056 0.575561194215674
8.48856287363829 0.586509691098594
8.53061066772141 0.598289291383457
8.57307354724792 0.610912203720909
8.61600040963445 0.624392792692339
8.65944557111908 0.638747970493756
8.70346992088456 0.653997696036349
8.74814238603159 0.670165617957283
8.79339282478718 0.687222656767459
8.83838794137862 0.704828026449444
8.88285458969493 0.722823641586355
8.9267373823251 0.741130467059433
8.97005931433931 0.759702742768907
9.01286804611041 0.778508713533368
9.05521614041738 0.797522682798472
9.09715431670853 0.816721752598067
9.13872954748495 0.836084471161523
9.17998487373802 0.855590250474671
9.2209597720878 0.875219094006789
9.26169065192936 0.89495145029228
9.30221134051228 0.914768118767889
9.34255351605135 0.93465017839427
9.38274708449424 0.954578927068313
9.42282050660279 0.974535826724481
9.46280108439029 0.994502451735822
9.50271521555327 1.01446043929411
9.54273199505463 1.03446305679419
9.58298313993508 1.05454437749806
9.62353257209436 1.0747033035562
9.66441948462731 1.09492478562124
9.70567453536886 1.11518772772139
9.74732605587486 1.13546790319258
9.78940254235897 1.15573898889518
9.83193377660219 1.17597288442193
9.87495146306514 1.19613975367327
9.91848972217489 1.21620795110636
9.96258557701782 1.2361438908872
10.0072794975881 1.25591187732941
10.0526160434119 1.27547389905112
10.0986446422981 1.29478938191986
10.1454205498465 1.31381489116069
10.1930060484972 1.33250376849475
10.2414719672007 1.35080568451507
10.2896740977455 1.36823340580295
10.3371285434867 1.38459785963956
10.3837302750786 1.39986773862707
10.4295105548923 1.41406463565826
10.4745421166343 1.42722387872674
10.5189045261345 1.4393810943503
10.5626727498857 1.45056824319637
10.6059142627959 1.4608129342087
10.6486890849097 1.47013875720234
10.6910506758615 1.4785658482396
10.7330469627094 1.48611143687568
10.774721275112 1.49279031058687
10.8161131382046 1.49861519203709
10.8572589306927 1.50359704132855
10.8981924303376 1.50774529753807
10.9389452695875 1.51106807193748
10.9795473207995 1.51357230270602
11.0200270267326 1.51526387863636
11.0604116887551 1.51614773750039
11.1007277226897 1.51622794332567
11.1410008903246 1.51550774574827
11.1812565132457 1.51398962376178
11.2215196746684 1.51167531550765
11.2618154142969 1.5085658351945
11.3021689208511 1.50466147775137
11.3426057267455 1.49996181137974
11.383151909461 1.4944656577417
11.4238343044268 1.48817105907957
11.4646807347415 1.48107523107718
11.5057202638502 1.47317449971196
11.5469834784216 1.46446421966931
11.5885028102362 1.45493867104335
11.6303129080353 1.4445909299591
11.6724510732162 1.43341270731904
11.7149577772757 1.4213941479556
11.7578772844726 1.40852357984769
11.8012584109772 1.39478719941177
11.8451554628406 1.38016867371829
11.8896294110959 1.3646486330444
11.9347493858015 1.34820401623273
11.980594606126 1.3308072148735
12.0272569178758 1.31242493697881
12.0748441957005 1.29301667067291
12.1229256927653 1.27277164703132
12.1706000106214 1.25211242224017
12.2175650927102 1.23123497491048
12.2637520368602 1.21023846029168
12.3091765627448 1.18918141460944
12.3538817815891 1.16810501780442
12.397917026348 1.14704254417664
12.4413304940493 1.12602319043527
12.4841670436103 1.10507364852794
12.5264678459508 1.08421878024645
12.5682706487128 1.06348193415018
12.6096102043283 1.04288511861659
12.6505187055808 1.0224491153381
12.6910261815233 1.00219356662567
12.7311608451269 0.982137049925781
12.7711290925197 0.962207688277311
12.8110454090247 0.942379218072726
12.850968242833 0.922653487072669
12.8909352637667 0.903042994749592
12.9309766433847 0.883564389863379
12.9711201522911 0.8642360700954
13.0113932041784 0.845077323909334
13.0518237683395 0.826108054710822
13.0924408746103 0.807348727922699
13.133274986787 0.788820407439661
13.1743583537871 0.770544832954731
13.215725386847 0.752544521850764
13.2574130902707 0.734842891854833
13.2994615682866 0.717464405950385
13.3419146326119 0.70043474387761
13.3848205415658 0.683781006799076
13.4282329116956 0.667531964212011
13.4722118579578 0.651718355495585
13.5168254408031 0.636373263156324
13.5621508207609 0.62153280846394
13.6072632833478 0.607541824903013
13.6518530499805 0.594504975320444
13.6958512773101 0.582437981642138
13.7392766489895 0.571326936865472
13.7821759664978 0.561150080660853
13.8246021692525 0.551885302894463
13.8666067492054 0.543512444246962
13.9082375401757 0.536013781963139
13.9495384284424 0.52937393040919
13.9905496900551 0.523579588230343
14.0313084848726 0.518619275269113
14.0718493472477 0.51448310078551
14.1122046269544 0.511162570385575
14.1524048737938 0.508650428722539
14.1924791719274 0.506940532757297
14.232455432921 0.506027750608029
14.272360656261 0.505907881897856
14.3122211650477 0.506577596428115
14.3520628234845 0.508034388807257
14.3919112418995 0.510276547336616
14.4317919744017 0.513303136019578
14.4717307138848 0.517113989052158
14.5117534889227 0.521709717601809
14.5518868671505 0.527091729115729
14.5921581699886 0.533262259847681
14.6325957040731 0.540224421782262
14.673229015535 0.547982265700635
14.7140891743921 0.556540862812833
14.7552090978778 0.565906408231875
14.7966239236613 0.576086350656372
14.8383714468395 0.587089554062264
14.880492638584 0.598926499126201
14.9230322698773 0.611609534726241
14.9660396715355 0.625153193509355
15.0095696727359 0.639574590667838
15.0536837761748 0.65489393249014
15.098451651347 0.671135172163235
15.1437471159208 0.688247551025539
15.1887691910068 0.705900069179445
15.2332577518334 0.723938942587953
15.2771623105028 0.742286925691887
15.3205075670713 0.760898973581503
15.3633416841341 0.77974360025821
15.4057172976928 0.798795195370295
15.4476850638378 0.818030871874275
15.4892918619898 0.837429157169228
15.5305806470569 0.85696942809304
15.5715908274634 0.876631645581616
15.6123587641235 0.896396210978576
15.6529182545049 0.916243872916984
15.6933009641135 0.936155656302525
15.7335368017707 0.956112801798438
15.7736542455551 0.976096710863694
15.8136806284799 0.996088894013358
15.853642392525 1.01607092100102
15.8937247603816 1.03610400085147
15.9340498576703 1.05621720596518
15.9746781311886 1.07640745068277
16.015647586665 1.09665881635515
16.0569885654814 1.11694974915742
16.0987294264904 1.13725570970463
16.1408988422756 1.15755010617377
16.1835268505872 1.17780457437791
16.2266454697437 1.19798900326518
16.2702891891645 1.21807145344542
16.3144954617737 1.23801802136637
16.3593052589206 1.25779266530877
16.4047637279164 1.27735699465305
16.450920990494 1.29667001691343
16.4978331282197 1.31568783240941
16.5455634158758 1.33436326183704
16.5941650718423 1.35263846146497
16.6423883119029 1.36999106090329
16.689826093569 1.38626445602094
16.7364030792827 1.40143926825655
16.7821611112974 1.41554101729098
16.8271761791065 1.42860603534842
16.8715284444835 1.44066995998121
16.9152925889528 1.45176447056127
16.958535574775 1.46191684364404
17.0013169070002 1.4711503604422
17.0436895953212 1.47948488940908
17.0857011937898 1.48693743223949
17.1273947302897 1.49352258223786
17.1688094896256 1.49925289513832
17.2099816621947 1.504139185745
17.2509448816065 1.50819076486442
17.2917306741125 1.51141562879763
17.332368839084 1.51382061101347
17.3728877759658 1.51541150333661
17.4133147699326 1.51619315217886
17.4536762460024 1.51616953395677
17.4939979995168 1.51534381277444
17.5343054095626 1.51371838262062
17.574623640967 1.5112948956646
17.614977839879 1.50807427768343
17.6553933275859 1.50405673117256
17.695895797087 1.49924172625064
17.7365115170307 1.49362797903637
17.7772675479313 1.48721341672511
17.8181919761315 1.47999512809438
17.8593141718162 1.47196929758722
17.9006650785745 1.46313112041808
17.9422775436603 1.45347469526082
17.9841867003602 1.44299288993762
18.0264304169733 1.43167717402102
18.0690498311573 1.41951741023586
18.1120899942934 1.40650159377254
18.1556006587958 1.3926155247544
18.1996372530765 1.37784239361098
18.2442621059336 1.3621622511677
18.2895460073067 1.34555132353845
18.3355702303038 1.32798111421098
18.382429198068 1.30941720832425
18.4302340722477 1.2898176505402
18.4783407599967 1.26946434462133
18.5259708202355 1.24873503219988
18.5728713232671 1.2278062876783
18.6189917494392 1.2067691624934
18.6643541709731 1.18567881547779
18.7090035249458 1.16457497426439
18.7529893453552 1.14349023679937
18.7963595007164 1.12245343675649
18.8391583932481 1.10149103196033
18.8814267482895 1.08062770580562
18.9232019214565 1.05988665507811
18.9645183347106 1.03928975129346
19.0054079087032 1.01885764934404
19.0459004526543 0.998609872685089
19.0860379623459 0.978557921379753
19.1260403901227 0.95862313619662
19.1660054143077 0.938787778231314
19.2059852926114 0.919056949470783
19.2460154816308 0.899444440261828
19.2861254514275 0.879967461917592
19.3263428632287 0.860644710197207
19.3666952719209 0.841495682044389
19.407210914276 0.822540466361038
19.4479191719564 0.803799717348271
19.4888509350045 0.785294702426828
19.53003895653 0.767047385873913
19.5715182403463 0.749080535571179
19.6133264871801 0.731417850570256
19.6555046220652 0.71408411170519
19.698097428603 0.697105360091853
19.7411543228363 0.680509110609166
19.7847303105644 0.664324610099226
19.8288871883632 0.648583153583457
19.8736950729416 0.633318476870035
19.9190306693948 0.618631480346406
19.964090130911 0.604818235456911
20.0086120296352 0.591964902924298
20.0525453102173 0.580080917387853
20.0959144705088 0.569150636807908
20.1387676688 0.559152153816661
20.1811576546909 0.550063707757004
20.223135274627 0.541865601331954
20.2647476523938 0.534540561082179
20.306038027958 0.528073604124901
20.3470461274447 0.522451782085365
20.3878086572522 0.517663923831197
20.4283597853485 0.513700411260587
20.4687315714548 0.510552993314218
20.5089543421227 0.508214634762674
20.5490570173545 0.506679394587981
20.5890673977141 0.50594232916233
20.6290124204825 0.505999416318619
20.6689183923542 0.50684749730449
20.7088112051265 0.508484234388468
20.7487165400047 0.510908082537656
20.7886600655635 0.514118274137956
20.828667634064 0.518114816212231
20.8687654807053 0.522898500039615
20.9089804304856 0.528470923518816
20.9493401176711 0.534834527077668
20.9898732234358 0.541992644440356
21.0306097380992 0.549949570157502
21.0715812556114 0.55871064652647
21.1128213096304 0.568282373437187
21.1543657628566 0.578672545851596
21.1962532644656 0.589890425173773
21.2385257948472 0.601946952853579
21.2812293229221 0.61485501742675
21.324414609825 0.628629790185594
21.3681382048779 0.643289150345481
21.4124636973783 0.658854228784898
21.4574633137268 0.675350111576337
21.5027622581629 0.692628836951233
21.5477100869751 0.710406752254824
21.5921062494778 0.728550862317023
21.635922067437 0.746992698638505
21.6791893463405 0.765690879984955
21.7219578951151 0.78461546350765
21.764280103912 0.803741510121668
21.8062058253838 0.823046442890119
21.8477810561344 0.842508944838404
21.8890479456878 0.86210847723013
21.9300452145211 0.881825047889071
21.9708086531888 0.901639081319934
22.0113715949296 0.921531331447889
22.0517653339961 0.941482813228561
22.092019489225 0.961474743392436
22.1321623204601 0.981488486107572
22.1722210068586 1.00150550151605
22.2122369423075 1.02151481852368
22.2524247094285 1.04159215484497
22.2928788252247 1.06175234213159
22.3336496426052 1.08198669591636
22.3747716370478 1.1022769174107
22.4162741192023 1.12260026270404
22.4581854023452 1.14293142817221
22.5005345383674 1.16324319393318
22.5433521682633 1.18350659228063
22.5866710735671 1.20369088782361
22.6305266571379 1.22376347472119
22.67495744986 1.24368972755445
22.720005693774 1.263432815679
22.7657180395761 1.28295347973539
22.8121463982952 1.30220976320976
22.8593489970397 1.32115668751675
22.9073917061132 1.33974585419852
22.9559394117387 1.35777591595265
23.0039865490488 1.37483289650518
23.0512243590057 1.39080187880713
23.0976126087589 1.40567735168104
23.1432034874989 1.41948827922041
23.1880743487131 1.43227088572793
23.2323038195668 1.44405968006069
23.2759643729601 1.45488506284713
23.3191208386101 1.46477314683169
23.3618308741904 1.47374622000901
23.4041459498405 1.48182331816363
23.4461123545067 1.48902074483862
23.4877720815699 1.49535250354279
23.5291635719407 1.50083064641499
23.5703223299072 1.5054655530698
23.6112814348776 1.50926615342627
23.6520719707438 1.51224010597871
23.6927233909388 1.5143939404335
23.7332638336423 1.51573317149576
23.7737203986171 1.51626238891403
23.814119394882 1.5159853276032
23.854486566736 1.51490492067302
23.8948473044369 1.51302333740953
23.9352268449917 1.51034200762523
23.9756504679784 1.50686163326272
24.0161436910256 1.50258218766673
24.0567324695188 1.49750290249894
24.097443405255 1.49162224183041
24.1383039691571 1.48493786247903
24.1793427438008 1.47744655913366
24.2205896924593 1.46914419218522
24.2620764627137 1.46002559542181
24.3038367345238 1.45008445977677
24.3459066251818 1.43931318806007
24.3883251670377 1.42770271393096
24.4311348786574 1.41524227610544
24.4743824567279 1.4019191356716
24.5181196253981 1.38771822000782
24.5624041931766 1.37262167054454
24.6073013870775 1.35660826249975
24.6528855628047 1.33965265116638
24.6992424340071 1.3217243786944
24.746472032667 1.30278654306616
24.7946927235377 1.28279397907687
24.8427876193733 1.26223677911507
24.8902543740448 1.24138936213356
24.9369487063365 1.22038425859857
24.9828604020064 1.19929421694917
25.0280253247127 1.17816674335019
25.0724922721656 1.15703822799033
25.1163110890294 1.1359396678807
25.1595288058084 1.11489899888732
25.2021887157682 1.09394207344743
25.2443304677759 1.07309309920276
25.2859904649294 1.05237486200668
25.3272023169007 1.0318088610103
25.3679972641471 1.01141540624632
25.4084045535923 0.991213698798476
25.4485402192544 0.971177801827484
25.4885776369388 0.951252318408094
25.5285972684722 0.931428260800679
25.5686450524058 0.911714101527102
25.6087542398569 0.892124998985274
25.6489536843768 0.87267879597629
25.6892710786137 0.853394559996842
25.7297343094968 0.834292080699971
25.7703721232565 0.815391730523441
25.8112145511326 0.796714466763074
25.8522932701209 0.778281893415513
25.8936419708269 0.76011635393839
25.9352967680311 0.742241046260561
25.9772966784167 0.724680159477634
26.0196841892054 0.707459035457778
26.0625059460001 0.690604361052137
26.1058135966768 0.674144398997664
26.1496648411942 0.658109268577182
26.1941247564764 0.642531291213129
26.2392674943057 0.627445422114505
26.2845754140679 0.61307572106113
26.3294844309612 0.599623760320553
26.3738276538478 0.58714044666244
26.4175885588274 0.5756233765537
26.4608028565079 0.565053705816613
26.5035212679452 0.555409315390252
26.5457961088644 0.546669158968034
26.5876769097256 0.538814457166088
26.6292093539461 0.531828823689401
26.6704353653027 0.525698069628133
26.7113935413493 0.520409942179784
26.7521196477501 0.515953878959798
26.7926470813356 0.512320798519061
26.8330072793092 0.509502928078729
26.8732300756131 0.507493664095239
26.9133440122947 0.506287460548074
26.9533766147632 0.505879740487461
26.9933546391021 0.506266827291874
27.0333042985331 0.507445892940094
27.0732514751612 0.509414921330769
27.1132219224004 0.512172685294156
27.1532414629975 0.51571873646596
27.1933361873174 0.520053407663773
27.2335326565269 0.525177827852306
27.2738581155034 0.531093950232742
27.3143407207181 0.537804594472957
27.3550097890363 0.545313504641029
27.3958960743925 0.553625425053087
27.4370320807171 0.562746197047378
27.4784524214525 0.572682880716016
27.520194238672 0.583443906956269
27.5622976984916 0.595039266976094
27.6048065845317 0.607480748795674
27.6477690182682 0.620782233613584
27.6912383451115 0.634960069586656
27.7352742394246 0.650033547279847
27.7799441026913 0.666025510844738
27.8253248603908 0.682963153621049
27.8705945786894 0.700519350759843
27.9153751656467 0.718499598548532
27.9595721572215 0.736809234247353
28.0031954661837 0.755395815270944
28.0462894419168 0.774224629806086
28.0889067973489 0.793268557492505
28.1310994840385 0.812503908928222
28.1729159256822 0.831908707879778
28.2144005431004 0.851461961151428
28.2555940410331 0.871143326264128
28.2965338981796 0.890932940051066
28.3372548678178 0.910811313515794
28.3777894311159 0.930759255110855
28.4181681928799 0.950757807130156
28.4584202248643 0.970788188802398
28.4985733656278 0.990831743173422
28.5386544859365 1.01086988624307
28.5787980816322 1.03093819511327
28.6191599386785 1.05108256216665
28.6598130199737 1.07130627761454
28.7007999646263 1.0915959003063
28.7421527712426 1.11193089463806
28.7839003104102 1.13228719673721
28.826071303649 1.15263849315329
28.8686956265234 1.17295663191594
28.9118050128709 1.19321169863816
28.9554335715503 1.21337195587377
28.9996182796036 1.23340371748399
29.0443995257907 1.25327118150753
29.0898217487323 1.27293622593186
29.1359342083186 1.29235816324382
29.1827919348213 1.31149344454391
29.2304569136326 1.33029529940017
29.2789995852186 1.34871329199632
29.3274294633037 1.36631253317747
29.375155743924 1.38285872104655
29.4220329295354 1.39830435008361
29.4680787310271 1.41266608531144
29.5133625082603 1.42597836066251
29.5579640228637 1.43827720860151
29.601959515448 1.44959531959114
29.6454179227283 1.45996103332039
29.6884006259382 1.46939858111041
29.730962274594 1.47792863908228
29.7731518166905 1.48556888617182
29.815013456746 1.49233448374299
29.8565874740562 1.49823846681999
29.8979109032806 1.50329205782438
29.9390180985178 1.50750491721082
29.9799412039674 1.51088534381628
30.020710551283 1.51344043515274
30.0613549999264 1.51517621549231
30.1019022334949 1.51609773767659
30.1423790223547 1.51620916310066
30.1828114609323 1.51551382318429
30.2232251865735 1.51401426475837
30.2636455858473 1.51171228109059
30.3040979934936 1.50860892969336
30.3446078887946 1.50470453755677
30.3852010939844 1.4999986939934
30.4259039793589 1.49449023084065
30.4667436800283 1.48817718931117
30.5077483297712 1.4810567722828
30.5489473182603 1.47312528024317
30.5903715790795 1.46437802840722
30.6320539175643 1.45480924165568
30.6740293896977 1.44441192282211
30.7163357463096 1.43317768838187
30.7590139609748 1.42109656361713
30.8021088657474 1.40815672662522
30.8456699269248 1.39434418677008
30.8897522044893 1.37964237783827
30.934417555438 1.36403163845269
30.9797361656065 1.34748854093813
31.0257885313202 1.32998501271997
31.0726680688294 1.31148716790855
31.12048461923 1.29195372475928
31.1687404307509 1.27160303986262
31.2165652028464 1.2508472569375
31.263669864248 1.22987801309907
31.3099908097695 1.20879281980108
31.3555459713834 1.18764968488888
31.4003794564269 1.16648970196946
31.4445411134359 1.14534622604844
31.4880794616185 1.12424859175761
31.5310396012523 1.1032236431451
31.5734629088334 1.08229639186661
31.61538732067 1.06149032820708
31.6568477696219 1.04082759234563
31.6978766252981 1.02032908766457
31.7385040929778 1.00001456847979
31.7787585635908 0.979902715220307
31.8188699886652 0.95991016072571
31.8589400241138 0.940017423803049
31.8990225299748 0.920229037616689
31.9391536727205 0.900558662772541
31.9793632932134 0.881023545276569
32.0196792927204 0.861642477148526
32.0601294146109 0.842435074861636
32.1007420633779 0.823421556107592
32.1415467802982 0.804622708269838
32.1825746128282 0.78605993493174
32.223858472757 0.767755339435747
32.2654335265316 0.749731832108635
32.3073376440607 0.732013258586127
32.3496119289422 0.714624551387461
32.3923013560263 0.697591909580982
32.4354555492872 0.680943013676631
32.479129744117 0.664707285553355
32.5233859946974 0.648916206822822
32.5682947116422 0.633603714154664
32.6137531658308 0.618864597073642
32.658940625756 0.605001579221111
32.7035893510543 0.592103127595717
32.7476463159543 0.580179295587906
32.791135688276 0.569214468533593
32.8341058627195 0.559186587092476
32.8766099866394 0.550073704227813
32.918699321616 0.541855948296671
32.9604213784613 0.534515895329246
33.0018197462009 0.528038436221736
33.0429344641434 0.52241051796346
33.0838025213988 0.517620883230126
33.1244583439191 0.513659843395997
33.1649342298794 0.510519090294883
33.2052607292448 0.508191543248349
33.2454669742495 0.506671226103474
33.2855809698633 0.505953169410443
33.3256298529338 0.506033333776694
33.3656401276139 0.506908551347015
33.4056378836305 0.508576483149402
33.445649003104 0.511035590708855
33.4856993610459 0.514285120892679
33.5258150243146 0.518325103444416
33.566022453693 0.523156361120387
33.6063487138611 0.528780532791999
33.6468216963671 0.535200110347438
33.6874703612939 0.542418490748783
33.7283250042099 0.550440045211121
33.7694175562577 0.559270208214242
33.8107819269943 0.568915589994653
33.852454401996 0.579384117378295
33.8944741105391 0.590685209418626
33.9368835832014 0.602829996468851
33.9797294255386 0.615831594289726
34.0230631428569 0.629705448950487
34.0669421637781 0.644469774197776
34.1114311286956 0.660146111555295
34.1566035364815 0.67676005614207
34.2020037958536 0.694131628599023
34.2470267844075 0.71199125322995
34.2914900877385 0.730211965982471
34.3353719309292 0.748727748943318
34.3787066219232 0.767498162433795
34.4215448053728 0.786493584758611
34.4639391008976 0.805689145599595
34.5059393870962 0.825062233955975
34.5475916322932 0.844591455982131
34.5889379566483 0.864256177091746
34.6300170675612 0.884036299603424
34.6708647633293 0.903912136401884
34.7115144060305 0.923864324910447
34.751997339009 0.943873759000518
34.7923432495799 0.963921529639959
34.8325804849178 0.983988870271341
34.8727363302531 1.00405710495199
34.912877869438 1.02412789819155
34.9532046265008 1.04426912095175
34.9938057077625 1.06449247254768
35.0347296384075 1.08478787508192
35.0760104280276 1.10513627425249
35.1176774595479 1.12551439433245
35.159759352737 1.14589646601353
35.2022855917452 1.16625480862334
35.2452873417397 1.18655997324973
35.2887979960833 1.206780710631
35.3328536660411 1.22688386045693
35.377493704056 1.24683419516632
35.4227613099019 1.26659422656104
35.4687042584171 1.28612397303416
35.5153757906234 1.3053806795469
35.562835721337 1.32431847793713
35.6111518353856 1.34288796994999
35.6597614076259 1.36080502230868
35.7077978911198 1.37771660090144
35.7550082312085 1.39353113143712
35.8013724090949 1.40825100781129
35.846948939756 1.42190731798286
35.8918164102857 1.43453641269785
35.9360529847846 1.44617232623964
35.9797302293052 1.45684486947427
36.0229120556309 1.4665796029533
36.0656553217099 1.47539833648385
36.1080108388998 1.48331970058835
36.1500243674424 1.49035965543079
36.1917374835401 1.49653191101767
36.2331883046883 1.50184826540105
36.2744120907831 1.50631887498061
36.3154417443056 1.5099524704623
36.3563082308863 1.51275652957514
36.3970409378212 1.51473741514488
36.4376679845655 1.51590048504655
36.4782164963629 1.51625017893787
36.5187128499771 1.51579008543222
36.5591828988864 1.51452299240749
36.5996521841469 1.51245092238763
36.6401461363433 1.50957515431485
36.6806902735506 1.50589623250436
36.7213103999914 1.50141396310289
36.7620328100565 1.49612739792504
36.8028845025708 1.49003480508843
36.8438934106382 1.48313362538078
36.8850886531228 1.47542041273541
36.9265008148828 1.46689075652831
36.968162264354 1.45753918258647
37.0101075191158 1.44735902874692
37.0523736728603 1.4363422894301
37.0950009010118 1.42447942185469
37.1380330675358 1.41175910402001
37.1815184628735 1.39816793111772
37.2255107134156 1.38369003214754
37.2700699180182 1.36830658148977
37.3152640891744 1.3519951698942
37.3611710095602 1.33472898392703
37.4078806653874 1.31647571926059
37.455498497794 1.29719611590122
37.5038809001053 1.27695619965741
37.55194620025 1.25624480237234
37.5993206599063 1.23528736411694
37.6459093539119 1.21419578001442
37.6917197993625 1.19303423602028
37.7367935091943 1.17184663265479
37.7811804957098 1.15066775716293
37.8249302977846 1.12952780956786
37.8680892025124 1.10845425611166
37.9106997084024 1.08747261686004
37.9528007444672 1.06660682891912
37.9944281008629 1.04587943934122
38.0356148811188 1.02531172797254
38.0763919168809 1.00492379987317
38.1167881327717 0.984734663178394
38.1569851557725 0.964685460146385
38.1971160415948 0.944741143331163
38.2372463968851 0.924900447507855
38.2774167925407 0.90517487515916
38.3176586998122 0.885580870069677
38.358000582373 0.866136921458967
38.3984703151638 0.846862520749503
38.4390962395745 0.827777817150588
38.4799077241352 0.808903539884037
38.5209355612435 0.790261026214655
38.5622123296963 0.77187229657392
38.6037727790943 0.753760156685951
38.6456542666757 0.73594832152005
38.6878972704373 0.718461562101986
38.7305460038577 0.701325879406221
38.773649163633 0.684568711951169
38.8172608520328 0.668219186312277
38.8614417307702 0.652308423153531
38.9062604859514 0.636869916151405
38.9517957177452 0.621940008168925
38.9971492231732 0.607856693202266
39.0419859793821 0.594733959230302
39.0862281745642 0.582590557862569
39.1298918749301 0.571413299837482
39.1730236005681 0.561180362623759
39.215676796777 0.551869350958263
39.2579036740142 0.543459788868737
39.2997527960487 0.535933664831816
39.3412687287714 0.52927534608051
39.3824923657397 0.523471324889015
39.4234614270237 0.518509950776679
39.4642109591464 0.514381193699691
39.5047737855838 0.511076446642015
39.5451809000523 0.508588364843165
39.5854618084452 0.506910736378988
39.6256448285413 0.506038379006528
39.665757356463 0.505967059073975
39.7058261078047 0.506693429240356
39.7458773402469 0.508214982577159
39.78593706357 0.510530021317648
39.826031242335 0.513637639104547
39.8661859961072 0.517537716096324
39.9064278019369 0.522230926758895
39.9467837038745 0.527718760622852
39.9872815345933 0.534003556755537
40.0279501547369 0.541088553212891
40.0688197164495 0.548977953333535
40.1099219587514 0.557677011460607
40.1512905440965 0.56719214158302
40.1929614477426 0.577531053555412
40.2349734147132 0.588702923095508
40.2773685034574 0.600718603828216
40.32019274132 0.613590892482048
40.3634969253733 0.627334862298439
40.4073376141806 0.641968285329675
40.4517783734765 0.657512172426803
40.4968913644686 0.673991471720646
40.542386721372 0.6912915393537
40.587555404625 0.709109249543929
40.6321744011089 0.727302925911622
40.6762073670529 0.7458002821206
40.7196841038622 0.764558191947865
40.7626544481931 0.783545831196631
40.8051714669623 0.802737738017926
40.8472858336487 0.822110964062825
40.8890443383778 0.841643887825297
40.9304898485777 0.861315698299313
40.9716617218566 0.881106148744736
41.0125963135095 0.900995420293351
41.0533274604886 0.920964031406074
41.0938869106067 0.94099276751945
41.1343046955828 0.961062620383745
41.1746094554984 0.98115473256957
41.2148287239057 1.00125034496991
41.2550017299384 1.02133701887043
41.2953465245859 1.04149182800197
41.3359590791991 1.06172995392936
41.3768904625304 1.08204267510214
41.4181755990959 1.10241149780584
41.4598441603592 1.12281341049417
41.5019248020763 1.14322280012299
41.5444469299594 1.16361210592506
41.5874415653994 1.18395199018844
41.6309419075514 1.20421131747924
41.6749838241409 1.2243570494002
41.7196063693832 1.24435409197157
41.7648523806774 1.26416510555348
41.8107691930892 1.28375027584195
41.8574095127403 1.30306703853712
41.9048325007815 1.32206974571034
41.9531051378143 1.34070925681751
42.0018244931353 1.3587587441185
42.0500191724545 1.37581942263706
42.0973949380922 1.39178261364421
42.1439174598592 1.40664522792454
42.1896413201089 1.42043714359088
42.2346448821651 1.43319492302924
42.2790072470467 1.44495319683949
42.3228011565418 1.45574240653824
42.3660916322947 1.46558867508447
42.4089364962635 1.47451428825771
