0 1
0.060028779979835 1.07469132072262
0.118816242147246 1.15324240310787
0.177348568015726 1.23715611294376
0.235991169277884 1.32735128818882
0.294875437582807 1.42453519866246
0.354043049130016 1.52935444884335
0.413501371703629 1.64245928819862
0.473244967666725 1.76453281323604
0.533263958211273 1.89630582415944
0.593547263813528 2.03856591998763
0.654083842128968 2.19216442860741
0.714863143233508 2.3580226987346
0.775875259722881 2.5371384181862
0.837110958696265 2.73059226372011
0.89856166887786 2.93955503943629
0.960219451545632 3.16529540112025
1.02207696645835 3.40918824175939
1.08412743711789 3.67272380733015
1.14636461701496 3.95751761285964
1.20878275745135 4.26532123296793
1.27137657711826 4.59803404705702
1.33414123344808 4.95771602641674
1.39707229569446 5.34660165855276
1.46016571967203 5.76711511295859
1.52341782407901 6.22188676238453
1.58682526832443 6.71377118446833
1.65038503178268 7.24586678047494
1.71409439439999 7.82153716095063
1.7779509185804 8.44443446244965
1.84195243228116 9.11852477527031
1.90609701325086 9.84811587949091
1.97038297434654 10.637887505687
2.03480884986877 11.4929243577196
2.0993733828571 12.4187521581131
2.16407551329111 13.4213770020122
2.22891436714502 14.5073283337669
2.29388924624716 15.6837058911193
2.3589996188978 16.9582309960607
2.42424511120202 18.3393026090291
2.4896254990768 19.8360586046095
2.55514070089381 21.4584427726926
2.62079077072213 23.217278099623
2.68657589213736 25.1243469397283
2.7524963725658 27.1924787493712
2.8185526381345 29.4356461239286
2.88474522900031 31.8690699536218
2.95107479513276 34.5093345976925
3.01754209252764 37.3745140689482
3.08414797983014 40.484310323204
3.15089341534779 43.8602048617352
3.21777945443573 47.5256249808218
3.28480724723776 51.5061261421934
3.35197803676896 55.8295920932936
3.41929315732659 60.5264545385328
3.48675403321778 65.6299343541076
3.55436217779404 71.1763065517752
3.62211919278375 77.2051914337115
3.69002676791545 83.7598746441103
3.7580866808261 90.8876591166972
3.82630079724964 98.6402522444582
3.89467107148279 107.074191962707
3.96319954712643 116.251315843748
4.03188835810187 126.239277756038
4.10073972994338 137.112117148865
4.16975598136915 148.950886591723
4.23893952613489 161.844343833517
4.30829287517537 175.889715358954
4.37781863904111 191.193539217787
4.44751953063908 207.872595798218
4.51739836828793 226.054936221278
4.58745807910031 245.881019162931
4.65770170270692 267.504968181607
4.72813239533898 291.095963059565
4.79875343428844 316.839780278819
4.86956822276751 344.940499570898
4.94058029519237 375.622395533231
5.0117933229187 409.13203562597
5.08321112046024 445.740608489613
5.15483765222541 485.74650949924
5.22667703981134 529.478213846062
5.29873356989913 577.297471269486
5.37101170279981 629.602860920739
5.44351608170607 686.833749800901
5.51625154271166 749.474703873344
5.58922312566801 818.060407410035
5.66243608595576 893.181153517668
5.73589590725916 975.488977249508
5.80960831544175 1065.70451241408
5.88357929363476 1164.62466434471
5.95781509866389 1273.13120373344
6.03232227895673 1392.20040144196
6.10710769409245 1522.91384131604
6.18217853617699 1666.47056784925
6.25754235325326 1824.2007485426
6.33320707498508 1997.58105756177
6.40918104088897 2188.25201848998
6.48547303142825 2398.03758044123
6.56209230233225 2628.96724454035
6.63904862256004 2883.30110801355
6.71635231639512 3163.5582523568
6.79401431023769 3472.54897208699
6.87204618475652 3813.41142368454
6.95046023317753 4189.65337329431
7.02926952662436 4605.19984003349
7.10848798759466 5064.44757370463
7.18813047286048 5572.32747679539
7.26821286733257 6134.37628778948
7.34875219073864 6756.8190948486
7.42976671935 7446.66455719501
7.51127612547307 8211.81509070946
7.5933016380271 9061.19474351022
7.6758662282986 10004.8980718003
7.75899482594558 11054.3640595423
7.84271457159306 12222.5800524638
7.92705511401314 13524.3218584392
8.01204896205665 14976.4376860432
8.09773190439465 16598.1855672135
8.18414351402049 18411.6365021895
8.27132775977129 20442.1590093229
8.35933375446934 22719.0053992808
8.44821667959611 25276.0264262575
8.53803894114708 28152.5497583144
8.62887163277104 31394.4701278559
8.72079641420486 35055.6169257196
8.8139079615962 39199.4914004217
8.90831722227913 43901.5055627799
9.0041558290354 49251.9171250945
9.10158223332311 55359.7551158094
9.20079047243683 62358.1990580761
9.30202313407039 70412.1703630642
9.40559133503637 79729.4447221253
9.51190713028221 90577.6910189438
9.62153966133912 103312.228391837
9.73532135955638 118425.112455212
9.8545753601844 136642.771149031
9.98170551088722 159159.398934413
10 162692.120998411
