%!PS-Adobe-3.0 EPSF-3.0
%%Creator: cairo 1.15.10 (http://cairographics.org)
%%CreationDate: Thu Aug 20 23:43:21 2020
%%Pages: 1
%%DocumentData: Clean7Bit
%%LanguageLevel: 2
%%BoundingBox: 0 0 226 141
%%EndComments
%%BeginProlog
50 dict begin
/q { gsave } bind def
/Q { grestore } bind def
/cm { 6 array astore concat } bind def
/w { setlinewidth } bind def
/J { setlinecap } bind def
/j { setlinejoin } bind def
/M { setmiterlimit } bind def
/d { setdash } bind def
/m { moveto } bind def
/l { lineto } bind def
/c { curveto } bind def
/h { closepath } bind def
/re { exch dup neg 3 1 roll 5 3 roll moveto 0 rlineto
      0 exch rlineto 0 rlineto closepath } bind def
/S { stroke } bind def
/f { fill } bind def
/f* { eofill } bind def
/n { newpath } bind def
/W { clip } bind def
/W* { eoclip } bind def
/BT { } bind def
/ET { } bind def
/BDC { mark 3 1 roll /BDC pdfmark } bind def
/EMC { mark /EMC pdfmark } bind def
/cairo_store_point { /cairo_point_y exch def /cairo_point_x exch def } def
/Tj { show currentpoint cairo_store_point } bind def
/TJ {
  {
    dup
    type /stringtype eq
    { show } { -0.001 mul 0 cairo_font_matrix dtransform rmoveto } ifelse
  } forall
  currentpoint cairo_store_point
} bind def
/cairo_selectfont { cairo_font_matrix aload pop pop pop 0 0 6 array astore
    cairo_font exch selectfont cairo_point_x cairo_point_y moveto } bind def
/Tf { pop /cairo_font exch def /cairo_font_matrix where
      { pop cairo_selectfont } if } bind def
/Td { matrix translate cairo_font_matrix matrix concatmatrix dup
      /cairo_font_matrix exch def dup 4 get exch 5 get cairo_store_point
      /cairo_font where { pop cairo_selectfont } if } bind def
/Tm { 2 copy 8 2 roll 6 array astore /cairo_font_matrix exch def
      cairo_store_point /cairo_font where { pop cairo_selectfont } if } bind def
/g { setgray } bind def
/rg { setrgbcolor } bind def
/d1 { setcachedevice } bind def
/cairo_data_source {
  CairoDataIndex CairoData length lt
    { CairoData CairoDataIndex get /CairoDataIndex CairoDataIndex 1 add def }
    { () } ifelse
} def
/cairo_flush_ascii85_file { cairo_ascii85_file status { cairo_ascii85_file flushfile } if } def
/cairo_image { image cairo_flush_ascii85_file } def
/cairo_imagemask { imagemask cairo_flush_ascii85_file } def
%%EndProlog
%%BeginSetup
%%EndSetup
%%Page: 1 1
%%BeginPageSetup
%%PageBoundingBox: 0 0 226 141
%%EndPageSetup
q 32 29 185 106 rectclip
1 0 0 -1 0 141 cm q
0 g
0.25 w
0 J
0 j
[] 0.0 d
3.8 M q 1 0 0 1 0 0 cm
36.449 108.051 m 32.75 108.051 l S Q
q 1 0 0 1 0 0 cm
117.051 108.051 m 120.75 108.051 l S Q
q 1 0 0 1 0 0 cm
36.449 98.25 m 32.75 98.25 l S Q
q 1 0 0 1 0 0 cm
117.051 98.25 m 120.75 98.25 l S Q
q 1 0 0 1 0 0 cm
36.449 88.398 m 32.75 88.398 l S Q
q 1 0 0 1 0 0 cm
117.051 88.398 m 120.75 88.398 l S Q
q 1 0 0 1 0 0 cm
36.449 78.602 m 32.75 78.602 l S Q
q 1 0 0 1 0 0 cm
117.051 78.602 m 120.75 78.602 l S Q
q 1 0 0 1 0 0 cm
36.449 68.75 m 32.75 68.75 l S Q
q 1 0 0 1 0 0 cm
117.051 68.75 m 120.75 68.75 l S Q
q 1 0 0 1 0 0 cm
36.449 58.949 m 32.75 58.949 l S Q
q 1 0 0 1 0 0 cm
117.051 58.949 m 120.75 58.949 l S Q
q 1 0 0 1 0 0 cm
36.449 49.148 m 32.75 49.148 l S Q
q 1 0 0 1 0 0 cm
117.051 49.148 m 120.75 49.148 l S Q
q 1 0 0 1 0 0 cm
36.449 39.301 m 32.75 39.301 l S Q
q 1 0 0 1 0 0 cm
117.051 39.301 m 120.75 39.301 l S Q
q 1 0 0 1 0 0 cm
36.449 29.5 m 32.75 29.5 l S Q
q 1 0 0 1 0 0 cm
117.051 29.5 m 120.75 29.5 l S Q
q 1 0 0 1 0 0 cm
36.449 19.648 m 32.75 19.648 l S Q
q 1 0 0 1 0 0 cm
117.051 19.648 m 120.75 19.648 l S Q
q 1 0 0 1 0 0 cm
36.449 9.852 m 32.75 9.852 l S Q
q 1 0 0 1 0 0 cm
117.051 9.852 m 120.75 9.852 l S Q
q 1 0 0 1 0 0 cm
36.449 108.051 m 36.449 111.75 l S Q
q 1 0 0 1 0 0 cm
36.449 9.852 m 36.449 6.148 l S Q
q 1 0 0 1 0 0 cm
52.551 108.051 m 52.551 111.75 l S Q
q 1 0 0 1 0 0 cm
52.551 9.852 m 52.551 6.148 l S Q
q 1 0 0 1 0 0 cm
68.699 108.051 m 68.699 111.75 l S Q
q 1 0 0 1 0 0 cm
68.699 9.852 m 68.699 6.148 l S Q
q 1 0 0 1 0 0 cm
84.801 108.051 m 84.801 111.75 l S Q
q 1 0 0 1 0 0 cm
84.801 9.852 m 84.801 6.148 l S Q
q 1 0 0 1 0 0 cm
100.949 108.051 m 100.949 111.75 l S Q
q 1 0 0 1 0 0 cm
100.949 9.852 m 100.949 6.148 l S Q
q 1 0 0 1 0 0 cm
117.051 108.051 m 117.051 111.75 l S Q
q 1 0 0 1 0 0 cm
117.051 9.852 m 117.051 6.148 l S Q
q 1 0 0 1 0 0 cm
36.449 9.852 80.602 98.199 re S Q
0.933333 0.509804 0.933333 rg
q 1 0 0 1 0 0 cm
192.148 14.5 m 216.25 14.5 l S Q
q 1 0 0 1 0 0 cm
36.449 106.102 m 37.25 106 l 38.602 105.852 l 40.25 105.699 l 42.051 105.449
 l 43.949 105.199 l 45.801 104.898 l 47.75 104.602 l 49.648 104.25 l 51.602
 103.898 l 55.5 103 l 57.5 102.449 l 59.449 101.898 l 61.449 101.25 l 63.5
 100.551 l 65.5 99.75 l 67.551 98.852 l 69.602 97.852 l 71.699 96.75 l 73.801
 95.5 l 75.898 94.148 l 78.051 92.602 l 80.199 90.852 l 82.398 88.852 l 
84.602 86.648 l 86.801 84.148 l 89.102 81.301 l 91.352 78.051 l 93.699 74.398
 l 96.051 70.199 l 98.5 65.398 l 100.949 59.852 l 103.449 53.398 l 106.051
 45.898 l 108.75 37.051 l 111.551 26.551 l 114.449 13.75 l 115.25 9.852 
l S Q
54.051 103.699 m 54.051 105.699 51.051 105.699 51.051 103.699 c 51.051 
101.699 54.051 101.699 54.051 103.699 c f
q 1 0 0 1 0 0 cm
54.051 103.699 m 54.051 105.699 51.051 105.699 51.051 103.699 c 51.051 
101.699 54.051 101.699 54.051 103.699 c S Q
70.199 98.301 m 70.199 100.301 67.199 100.301 67.199 98.301 c 67.199 96.301
 70.199 96.301 70.199 98.301 c f
q 1 0 0 1 0 0 cm
70.199 98.301 m 70.199 100.301 67.199 100.301 67.199 98.301 c 67.199 96.301
 70.199 96.301 70.199 98.301 c S Q
86.301 86.398 m 86.301 88.398 83.301 88.398 83.301 86.398 c 83.301 84.398
 86.301 84.398 86.301 86.398 c f
q 1 0 0 1 0 0 cm
86.301 86.398 m 86.301 88.398 83.301 88.398 83.301 86.398 c 83.301 84.398
 86.301 84.398 86.301 86.398 c S Q
102.449 59.852 m 102.449 61.852 99.449 61.852 99.449 59.852 c 99.449 57.852
 102.449 57.852 102.449 59.852 c f
q 1 0 0 1 0 0 cm
102.449 59.852 m 102.449 61.852 99.449 61.852 99.449 59.852 c 99.449 57.852
 102.449 57.852 102.449 59.852 c S Q
205.699 23.801 m 205.699 25.801 202.699 25.801 202.699 23.801 c 202.699
 21.801 205.699 21.801 205.699 23.801 c f
q 1 0 0 1 0 0 cm
205.699 23.801 m 205.699 25.801 202.699 25.801 202.699 23.801 c 202.699
 21.801 205.699 21.801 205.699 23.801 c S Q
0 0 1 rg
q 1 0 0 1 0 0 cm
192.148 33.102 m 216.25 33.102 l S Q
q 1 0 0 1 0 0 cm
36.449 106.102 m 37.25 105.949 l 38.25 105.801 l 39.352 105.602 l 40.5 
105.398 l 41.648 105.148 l 42.801 104.898 l 43.949 104.602 l 45.148 104.301
 l 46.301 103.949 l 47.5 103.602 l 48.699 103.148 l 49.898 102.699 l 51.051
 102.199 l 52.25 101.648 l 53.5 101.102 l 54.699 100.398 l 55.898 99.699
 l 57.102 98.898 l 58.352 98.051 l 59.551 97.102 l 60.801 96.051 l 62.051
 94.852 l 63.25 93.602 l 64.5 92.199 l 65.75 90.648 l 67.051 88.898 l 68.301
 87.051 l 69.551 84.949 l 70.852 82.648 l 72.148 80.102 l 73.449 77.25 l
 74.75 74.102 l 76.051 70.648 l 77.352 66.801 l 78.699 62.5 l 80 57.75 l
 81.352 52.5 l 82.699 46.602 l 84.051 40.051 l 85.449 32.699 l 86.852 24.5
 l 88.25 15.352 l 89 9.852 l S Q
54.051 101.551 m 54.051 103.551 51.051 103.551 51.051 101.551 c 51.051 
99.551 54.051 99.551 54.051 101.551 c f
q 1 0 0 1 0 0 cm
54.051 101.551 m 54.051 103.551 51.051 103.551 51.051 101.551 c 51.051 
99.551 54.051 99.551 54.051 101.551 c S Q
70.199 86.398 m 70.199 88.398 67.199 88.398 67.199 86.398 c 67.199 84.398
 70.199 84.398 70.199 86.398 c f
q 1 0 0 1 0 0 cm
70.199 86.398 m 70.199 88.398 67.199 88.398 67.199 86.398 c 67.199 84.398
 70.199 84.398 70.199 86.398 c S Q
86.301 36.148 m 86.301 38.148 83.301 38.148 83.301 36.148 c 83.301 34.148
 86.301 34.148 86.301 36.148 c f
q 1 0 0 1 0 0 cm
86.301 36.148 m 86.301 38.148 83.301 38.148 83.301 36.148 c 83.301 34.148
 86.301 34.148 86.301 36.148 c S Q
205.699 42.398 m 205.699 44.398 202.699 44.398 202.699 42.398 c 202.699
 40.398 205.699 40.398 205.699 42.398 c f
q 1 0 0 1 0 0 cm
205.699 42.398 m 205.699 44.398 202.699 44.398 202.699 42.398 c 202.699
 40.398 205.699 40.398 205.699 42.398 c S Q
0.941176 0.894118 0.258824 rg
q 1 0 0 1 0 0 cm
192.148 51.699 m 216.25 51.699 l S Q
q 1 0 0 1 0 0 cm
36.449 106.102 m 37.25 105.898 l 38.051 105.75 l 38.898 105.551 l 39.699
 105.352 l 40.551 105.102 l 41.352 104.852 l 42.148 104.602 l 43 104.301
 l 43.852 103.949 l 44.648 103.602 l 45.5 103.25 l 46.352 102.801 l 47.148
 102.352 l 48.852 101.352 l 49.699 100.75 l 50.551 100.102 l 51.352 99.398
 l 52.199 98.648 l 53.051 97.801 l 53.949 96.898 l 54.801 95.949 l 55.648
 94.852 l 56.5 93.699 l 57.352 92.398 l 58.25 91 l 59.102 89.449 l 59.949
 87.801 l 60.852 85.949 l 61.699 83.949 l 62.602 81.75 l 63.5 79.352 l 64.352
 76.699 l 65.25 73.801 l 66.148 70.648 l 67.051 67.199 l 67.949 63.352 l
 68.852 59.199 l 69.75 54.602 l 70.648 49.602 l 71.551 44.051 l 72.449 38
 l 73.398 31.301 l 74.301 23.949 l 75.25 15.852 l 75.852 9.852 l S Q
0 0.447059 0.698039 rg
q 1 0 0 1 0 0 cm
192.148 61 m 216.25 61 l S Q
q 1 0 0 1 0 0 cm
36.449 106.102 m 37.102 105.898 l 37.75 105.75 l 38.352 105.551 l 39 105.352
 l 39.602 105.148 l 40.25 104.898 l 40.852 104.648 l 41.5 104.352 l 42.148
 104.051 l 42.75 103.75 l 43.398 103.398 l 44.051 103 l 44.648 102.602 l
 45.301 102.148 l 45.949 101.648 l 46.602 101.148 l 47.199 100.551 l 47.852
 99.949 l 48.5 99.301 l 49.148 98.551 l 49.801 97.75 l 50.449 96.898 l 51.102
 96 l 51.75 94.949 l 52.398 93.852 l 53.051 92.648 l 53.699 91.352 l 54.352
 89.949 l 55 88.449 l 55.648 86.75 l 56.301 84.949 l 56.949 83 l 57.648 
80.852 l 58.301 78.5 l 58.949 76 l 59.648 73.199 l 60.301 70.199 l 60.949
 66.949 l 61.648 63.398 l 62.301 59.5 l 63 55.25 l 63.648 50.648 l 64.352
 45.648 l 65 40.148 l 65.699 34.148 l 66.352 27.648 l 67.051 20.5 l 67.75
 12.75 l 67.949 9.852 l S Q
0.898039 0.117647 0.0627451 rg
q 1 0 0 1 0 0 cm
192.148 70.301 m 216.25 70.301 l S Q
q 1 0 0 1 0 0 cm
36.449 106.102 m 36.949 105.949 l 37.398 105.801 l 37.898 105.602 l 38.352
 105.449 l 38.852 105.25 l 39.301 105.051 l 39.801 104.801 l 40.25 104.602
 l 40.75 104.352 l 41.25 104.051 l 41.699 103.75 l 42.199 103.398 l 42.699
 103.051 l 43.199 102.699 l 43.699 102.301 l 44.199 101.852 l 45.199 100.852
 l 45.699 100.301 l 46.199 99.648 l 46.699 99 l 47.199 98.301 l 47.699 97.551
 l 48.199 96.699 l 48.75 95.852 l 49.25 94.852 l 49.75 93.801 l 50.25 92.699
 l 50.801 91.449 l 51.301 90.148 l 51.801 88.699 l 52.352 87.148 l 52.852
 85.5 l 53.352 83.648 l 53.898 81.699 l 54.398 79.551 l 54.949 77.25 l 55.449
 74.75 l 56 72.051 l 56.5 69.102 l 57.051 65.898 l 57.551 62.449 l 58.102
 58.699 l 58.648 54.648 l 59.148 50.25 l 59.699 45.449 l 60.25 40.25 l 60.75
 34.648 l 61.301 28.551 l 61.852 21.898 l 62.398 14.699 l 62.699 9.852 l
 S Q
0 g
q 1 0 0 1 0 0 cm
36.449 9.852 80.602 98.199 re S Q
Q Q
showpage
%%Trailer
end
%%EOF
