\relax 
\providecommand*{\memsetcounter}[2]{}
\newlabel{eq:general}{{\M@TitleReference {1}{Exponential function}}{1}}
\newlabel{eq:euler_base}{{\M@TitleReference {5}{Exponential function}}{2}}
\@writefile{lof}{\contentsline {figure}{\numberline {1}{\ignorespaces \textit  {The exponential function using eulers number as base, and several values of $a$ as shown in the }}}{2}}
\newlabel{fig:euler_exp_plot}{{\M@TitleReference {1}{\textit  {The exponential function using eulers number as base, and several values of $a$ as shown in the }}}{2}}
\memsetcounter{lastsheet}{2}
\memsetcounter{lastpage}{2}
