o8a: nrec>10 a=0 b=0.0009765625
o8a: nrec>10 a=0 b=0.0009765625
0.1 2.50000012859292
0.2 1.2499999559962
0.3 0.833333385602247
0.4 0.624987616035813
0.5 0.499999452280815
0.6 0.416669511121055
0.7 0.357142857209884
0.8 0.312499989258211
0.9 0.277777838220509
1 0.250000181184076
1.1 0.227273157279752
1.2 0.208333941235643
1.3 0.192290909574621
1.4 0.1785713406531
1.5 0.166666676752317
1.6 0.156249958857391
1.7 0.147058745196813
1.8 0.138888797148744
1.9 0.131578941531874
2 0.125000027917901
2.1 0.119047567029649
2.2 0.113636370550532
2.3 0.108695721787743
2.4 0.104166793045543
2.5 0.10000019645659
2.6 0.0961538586880427
2.7 0.0925947009950404
2.8 0.0892873280947745
2.9 0.0862080880507815
